[
  [
    2, "Missing phase"
  ],
  [
    3, "External Fault Signal (PTC)"
  ],
  [
    4, "Too many auto restarts in 24 hours"
  ],
  [
    9, "Phase sequence reversal"
  ],
  [
    12, "Service warning"
  ],
  [
    15, "Main system communication alarm"
  ],
  [
    18, "Commanded trip, Trip 2 mode"
  ],
  [
    20, "Insulation resistance low"
  ],
  [
    21, "Too many starts per hour"
  ],
  [
    26, "Load continues despite motor relay R1 is off (tripped)"
  ],
  [
    32, "Overvoltage"
  ],
  [
    40, "Undervoltage"
  ],
  [
    48, "Overload"
  ],
  [
    56, "Underload"
  ],
  [
    64, "Overtemperature Tempcon measurement"
  ],
  [
    71, "Overtemperature PT100 measurement"
  ],
  [
    91, "Tempcon sensor signal fault"
  ],
  [
    111, "Current asymmetry"
  ],
  [
    112, "Cos(φ) max alarm"
  ],
  [
    113, "Cos(φ) min alarm"
  ],
  [
    175, "PT100 temperature sensor signal fault"
  ]
]